ParallelRuns32Thread
1000 particles
Number of Threads =32
Number of Threads =32
Number of Threads =32
Number of Threads =32
Number of Threads =32
Number of Threads =32
Number of Threads =32
Number of Threads =32
Number of Threads =32
Number of Threads =32
Number of Threads =32
Number of Threads =32
Number of Threads =32
Number of Threads =32
Number of Threads =32
Number of Threads =32
Number of Threads =32
Number of Threads =32
Number of Threads =32
Number of Threads =32
Number of Threads =32
Number of Threads =32
Number of Threads =32
Number of Threads =32
Number of Threads =32
Number of Threads =32
Number of Threads =32
Number of Threads =32
Number of Threads =32
Number of Threads =32
Number of Threads =32
Number of Threads =32
min/max/ave velocity = 7.375598e+00, 9.003639e+02, 1.915161e+02
min/max/ave velocity = 7.902918e+00, 9.003550e+02, 2.425440e+02
min/max/ave velocity = 7.907019e+00, 9.003549e+02, 1.982983e+02
min/max/ave velocity = 7.908365e+00, 9.003549e+02, 2.050952e+02
min/max/ave velocity = 7.909073e+00, 9.003549e+02, 1.841083e+02
min/max/ave velocity = 7.909469e+00, 9.003549e+02, 1.949797e+02
min/max/ave velocity = 7.909721e+00, 9.003549e+02, 1.947487e+02
min/max/ave velocity = 7.909904e+00, 9.003549e+02, 2.011095e+02
min/max/ave velocity = 7.910045e+00, 9.003549e+02, 1.993479e+02
min/max/ave velocity = 7.910151e+00, 9.003549e+02, 1.838066e+02
Average time = 2.108561 (ms) per step with 1000 elements 54.69 KB over 100 steps 0.801352 1.000934 0.306179
2000 particles
Number of Threads =32
Number of Threads =32
Number of Threads =32
Number of Threads =32
Number of Threads =32
Number of Threads =32
Number of Threads =32
Number of Threads =32
Number of Threads =32
Number of Threads =32
Number of Threads =32
Number of Threads =32
Number of Threads =32
Number of Threads =32
Number of Threads =32
Number of Threads =32
Number of Threads =32
Number of Threads =32
Number of Threads =32
Number of Threads =32
Number of Threads =32
Number of Threads =32
Number of Threads =32
Number of Threads =32
Number of Threads =32
Number of Threads =32
Number of Threads =32
Number of Threads =32
Number of Threads =32
Number of Threads =32
Number of Threads =32
Number of Threads =32
min/max/ave velocity = 1.898575e+01, 1.246211e+03, 3.117534e+02
min/max/ave velocity = 1.897724e+01, 1.246201e+03, 3.258989e+02
min/max/ave velocity = 1.897727e+01, 1.246200e+03, 3.328612e+02
min/max/ave velocity = 1.897728e+01, 1.246200e+03, 4.835266e+02
min/max/ave velocity = 1.897728e+01, 1.246200e+03, 2.939266e+02
min/max/ave velocity = 1.897729e+01, 1.246200e+03, 3.327086e+02
min/max/ave velocity = 1.897729e+01, 1.246200e+03, 4.152166e+02
min/max/ave velocity = 1.897729e+01, 1.246200e+03, 3.848097e+02
min/max/ave velocity = 1.897729e+01, 1.246200e+03, 3.899129e+02
min/max/ave velocity = 1.897730e+01, 1.246200e+03, 3.693202e+02
Average time = 4.392184 (ms) per step with 2000 elements 109.38 KB over 100 steps 2.173139 1.578387 0.640568
4000 particles
Number of Threads =32
Number of Threads =32
Number of Threads =32
Number of Threads =32
Number of Threads =32
Number of Threads =32
Number of Threads =32
Number of Threads =32
Number of Threads =32
Number of Threads =32
Number of Threads =32
Number of Threads =32
Number of Threads =32
Number of Threads =32
Number of Threads =32
Number of Threads =32
Number of Threads =32
Number of Threads =32
Number of Threads =32
Number of Threads =32
Number of Threads =32
Number of Threads =32
Number of Threads =32
Number of Threads =32
Number of Threads =32
Number of Threads =32
Number of Threads =32
Number of Threads =32
Number of Threads =32
Number of Threads =32
Number of Threads =32
Number of Threads =32
min/max/ave velocity = 2.461957e+01, 5.048982e+03, 5.892969e+02
min/max/ave velocity = 2.331288e+01, 5.048980e+03, 7.539191e+02
min/max/ave velocity = 2.331288e+01, 5.048980e+03, 7.154280e+02
min/max/ave velocity = 2.331288e+01, 5.048980e+03, 7.197917e+02
min/max/ave velocity = 2.331287e+01, 5.048980e+03, 6.544553e+02
min/max/ave velocity = 2.331287e+01, 5.048980e+03, 6.992325e+02
min/max/ave velocity = 2.331287e+01, 5.048980e+03, 7.297513e+02
min/max/ave velocity = 2.331287e+01, 5.048980e+03, 7.224908e+02
min/max/ave velocity = 2.331287e+01, 5.048980e+03, 6.981070e+02
min/max/ave velocity = 2.331287e+01, 5.048980e+03, 7.376902e+02
Average time = 11.422207 (ms) per step with 4000 elements 218.75 KB over 100 steps 7.620342 2.295626 1.506164
8000 particles
Number of Threads =32
Number of Threads =32
Number of Threads =32
Number of Threads =32
Number of Threads =32
Number of Threads =32
Number of Threads =32
Number of Threads =32
Number of Threads =32
Number of Threads =32
Number of Threads =32
Number of Threads =32
Number of Threads =32
Number of Threads =32
Number of Threads =32
Number of Threads =32
Number of Threads =32
Number of Threads =32
Number of Threads =32
Number of Threads =32
Number of Threads =32
Number of Threads =32
Number of Threads =32
Number of Threads =32
Number of Threads =32
Number of Threads =32
Number of Threads =32
Number of Threads =32
Number of Threads =32
Number of Threads =32
Number of Threads =32
Number of Threads =32
min/max/ave velocity = 4.492651e+00, 4.170959e+04, 1.569217e+03
min/max/ave velocity = 4.483115e+00, 4.170959e+04, 1.724446e+03
min/max/ave velocity = 4.483016e+00, 4.170959e+04, 1.719002e+03
min/max/ave velocity = 4.482983e+00, 4.170959e+04, 1.621156e+03
min/max/ave velocity = 4.482966e+00, 4.170959e+04, 1.710469e+03
min/max/ave velocity = 4.482956e+00, 4.170959e+04, 1.644671e+03
min/max/ave velocity = 4.482950e+00, 4.170959e+04, 1.704854e+03
min/max/ave velocity = 4.482945e+00, 4.170959e+04, 2.028066e+03
min/max/ave velocity = 4.482941e+00, 4.170959e+04, 2.187715e+03
min/max/ave velocity = 4.482939e+00, 4.170959e+04, 2.000225e+03
Average time = 29.641062 (ms) per step with 8000 elements 437.50 KB over 100 steps 27.337683 1.914050 0.389242
