Begin CXX=icpc Section
100 steps
min/max/ave velocity = 1.065529e-01, 9.341348e-01, 3.215404e-01
min/max/ave velocity = 1.321342e+00, 1.029963e+02, 8.695904e+00
min/max/ave velocity = 2.169287e+00, 1.029562e+02, 1.391408e+01
min/max/ave velocity = 1.154961e+00, 1.029456e+02, 1.456290e+01
min/max/ave velocity = 2.506479e+00, 1.029407e+02, 1.346930e+01
min/max/ave velocity = 1.476830e+00, 1.029379e+02, 1.305055e+01
min/max/ave velocity = 8.619377e-01, 1.029361e+02, 1.277482e+01
min/max/ave velocity = 8.759874e-01, 1.029348e+02, 1.257947e+01
min/max/ave velocity = 7.625652e-01, 1.029339e+02, 1.244781e+01
min/max/ave velocity = 7.230864e-01, 1.029331e+02, 1.234642e+01
Average time = 0.034825 (ms) per step with 100 elements 5.47 KB over 100 steps 0.031005 0.001175 0.002476
200 steps
min/max/ave velocity = 1.065529e-01, 9.341348e-01, 3.215404e-01
min/max/ave velocity = 1.321342e+00, 1.029963e+02, 8.695904e+00
min/max/ave velocity = 2.169287e+00, 1.029562e+02, 1.391408e+01
min/max/ave velocity = 1.154961e+00, 1.029456e+02, 1.456290e+01
min/max/ave velocity = 2.506479e+00, 1.029407e+02, 1.346930e+01
min/max/ave velocity = 1.476830e+00, 1.029379e+02, 1.305055e+01
min/max/ave velocity = 8.619377e-01, 1.029361e+02, 1.277482e+01
min/max/ave velocity = 8.759874e-01, 1.029348e+02, 1.257947e+01
min/max/ave velocity = 7.625652e-01, 1.029339e+02, 1.244781e+01
min/max/ave velocity = 7.230864e-01, 1.029331e+02, 1.234642e+01
min/max/ave velocity = 7.213024e-01, 1.029326e+02, 1.226545e+01
min/max/ave velocity = 7.345096e-01, 1.029321e+02, 1.219707e+01
min/max/ave velocity = 7.529621e-01, 1.029317e+02, 1.213451e+01
min/max/ave velocity = 7.730955e-01, 1.029314e+02, 1.209572e+01
min/max/ave velocity = 7.936932e-01, 1.029311e+02, 1.213220e+01
min/max/ave velocity = 8.139927e-01, 1.029308e+02, 1.209699e+01
min/max/ave velocity = 2.534186e-01, 1.029306e+02, 1.205643e+01
min/max/ave velocity = 7.013766e-01, 1.029304e+02, 1.203475e+01
min/max/ave velocity = 8.700423e-01, 1.029303e+02, 1.200614e+01
min/max/ave velocity = 8.880333e-01, 1.029301e+02, 1.198396e+01
Average time = 0.033826 (ms) per step with 100 elements 5.47 KB over 200 steps 0.030893 0.001158 0.001616
400 steps
min/max/ave velocity = 1.065529e-01, 9.341348e-01, 3.215404e-01
min/max/ave velocity = 1.321342e+00, 1.029963e+02, 8.695904e+00
min/max/ave velocity = 2.169287e+00, 1.029562e+02, 1.391408e+01
min/max/ave velocity = 1.154961e+00, 1.029456e+02, 1.456290e+01
min/max/ave velocity = 2.506479e+00, 1.029407e+02, 1.346930e+01
min/max/ave velocity = 1.476830e+00, 1.029379e+02, 1.305055e+01
min/max/ave velocity = 8.619377e-01, 1.029361e+02, 1.277482e+01
min/max/ave velocity = 8.759874e-01, 1.029348e+02, 1.257947e+01
min/max/ave velocity = 7.625652e-01, 1.029339e+02, 1.244781e+01
min/max/ave velocity = 7.230864e-01, 1.029331e+02, 1.234642e+01
min/max/ave velocity = 7.213024e-01, 1.029326e+02, 1.226545e+01
min/max/ave velocity = 7.345096e-01, 1.029321e+02, 1.219707e+01
min/max/ave velocity = 7.529621e-01, 1.029317e+02, 1.213451e+01
min/max/ave velocity = 7.730955e-01, 1.029314e+02, 1.209572e+01
min/max/ave velocity = 7.936932e-01, 1.029311e+02, 1.213220e+01
min/max/ave velocity = 8.139927e-01, 1.029308e+02, 1.209699e+01
min/max/ave velocity = 2.534186e-01, 1.029306e+02, 1.205643e+01
min/max/ave velocity = 7.013766e-01, 1.029304e+02, 1.203475e+01
min/max/ave velocity = 8.700423e-01, 1.029303e+02, 1.200614e+01
min/max/ave velocity = 8.880333e-01, 1.029301e+02, 1.198396e+01
min/max/ave velocity = 9.057384e-01, 1.029300e+02, 1.196925e+01
min/max/ave velocity = 9.230546e-01, 1.029299e+02, 1.195899e+01
min/max/ave velocity = 9.398786e-01, 1.029298e+02, 1.194986e+01
min/max/ave velocity = 9.561383e-01, 1.029297e+02, 1.193925e+01
min/max/ave velocity = 9.717959e-01, 1.029296e+02, 1.192632e+01
min/max/ave velocity = 9.868422e-01, 1.029295e+02, 1.191213e+01
min/max/ave velocity = 9.767439e-01, 1.029294e+02, 1.189770e+01
min/max/ave velocity = 8.607365e-01, 1.029294e+02, 1.188341e+01
min/max/ave velocity = 7.867648e-01, 1.029293e+02, 1.187005e+01
min/max/ave velocity = 1.041309e+00, 1.029292e+02, 1.186662e+01
min/max/ave velocity = 1.053668e+00, 1.029292e+02, 1.185863e+01
min/max/ave velocity = 1.065589e+00, 1.029291e+02, 1.184556e+01
min/max/ave velocity = 1.077099e+00, 1.029291e+02, 1.183534e+01
min/max/ave velocity = 1.088226e+00, 1.029290e+02, 1.182725e+01
min/max/ave velocity = 1.098998e+00, 1.029290e+02, 1.182122e+01
min/max/ave velocity = 1.109439e+00, 1.029289e+02, 1.181846e+01
min/max/ave velocity = 1.119574e+00, 1.029289e+02, 1.181237e+01
min/max/ave velocity = 1.129425e+00, 1.029289e+02, 1.180217e+01
min/max/ave velocity = 1.139011e+00, 1.029288e+02, 1.179576e+01
min/max/ave velocity = 1.136510e+00, 1.029288e+02, 1.179176e+01
Average time = 0.032696 (ms) per step with 100 elements 5.47 KB over 400 steps 0.030280 0.001008 0.001252
800 steps
min/max/ave velocity = 1.065529e-01, 9.341348e-01, 3.215404e-01
min/max/ave velocity = 1.321342e+00, 1.029963e+02, 8.695904e+00
min/max/ave velocity = 2.169287e+00, 1.029562e+02, 1.391408e+01
min/max/ave velocity = 1.154961e+00, 1.029456e+02, 1.456290e+01
min/max/ave velocity = 2.506479e+00, 1.029407e+02, 1.346930e+01
min/max/ave velocity = 1.476830e+00, 1.029379e+02, 1.305055e+01
min/max/ave velocity = 8.619377e-01, 1.029361e+02, 1.277482e+01
min/max/ave velocity = 8.759874e-01, 1.029348e+02, 1.257947e+01
min/max/ave velocity = 7.625652e-01, 1.029339e+02, 1.244781e+01
min/max/ave velocity = 7.230864e-01, 1.029331e+02, 1.234642e+01
min/max/ave velocity = 7.213024e-01, 1.029326e+02, 1.226545e+01
min/max/ave velocity = 7.345096e-01, 1.029321e+02, 1.219707e+01
min/max/ave velocity = 7.529621e-01, 1.029317e+02, 1.213451e+01
min/max/ave velocity = 7.730955e-01, 1.029314e+02, 1.209572e+01
min/max/ave velocity = 7.936932e-01, 1.029311e+02, 1.213220e+01
min/max/ave velocity = 8.139927e-01, 1.029308e+02, 1.209699e+01
min/max/ave velocity = 2.534186e-01, 1.029306e+02, 1.205643e+01
min/max/ave velocity = 7.013766e-01, 1.029304e+02, 1.203475e+01
min/max/ave velocity = 8.700423e-01, 1.029303e+02, 1.200614e+01
min/max/ave velocity = 8.880333e-01, 1.029301e+02, 1.198396e+01
min/max/ave velocity = 9.057384e-01, 1.029300e+02, 1.196925e+01
min/max/ave velocity = 9.230546e-01, 1.029299e+02, 1.195899e+01
min/max/ave velocity = 9.398786e-01, 1.029298e+02, 1.194986e+01
min/max/ave velocity = 9.561383e-01, 1.029297e+02, 1.193925e+01
min/max/ave velocity = 9.717959e-01, 1.029296e+02, 1.192632e+01
min/max/ave velocity = 9.868422e-01, 1.029295e+02, 1.191213e+01
min/max/ave velocity = 9.767439e-01, 1.029294e+02, 1.189770e+01
min/max/ave velocity = 8.607365e-01, 1.029294e+02, 1.188341e+01
min/max/ave velocity = 7.867648e-01, 1.029293e+02, 1.187005e+01
min/max/ave velocity = 1.041309e+00, 1.029292e+02, 1.186662e+01
min/max/ave velocity = 1.053668e+00, 1.029292e+02, 1.185863e+01
min/max/ave velocity = 1.065589e+00, 1.029291e+02, 1.184556e+01
min/max/ave velocity = 1.077099e+00, 1.029291e+02, 1.183534e+01
min/max/ave velocity = 1.088226e+00, 1.029290e+02, 1.182725e+01
min/max/ave velocity = 1.098998e+00, 1.029290e+02, 1.182122e+01
min/max/ave velocity = 1.109439e+00, 1.029289e+02, 1.181846e+01
min/max/ave velocity = 1.119574e+00, 1.029289e+02, 1.181237e+01
min/max/ave velocity = 1.129425e+00, 1.029289e+02, 1.180217e+01
min/max/ave velocity = 1.139011e+00, 1.029288e+02, 1.179576e+01
min/max/ave velocity = 1.136510e+00, 1.029288e+02, 1.179176e+01
min/max/ave velocity = 1.122280e+00, 1.029288e+02, 1.178836e+01
min/max/ave velocity = 1.110399e+00, 1.029287e+02, 1.177847e+01
min/max/ave velocity = 1.101662e+00, 1.029287e+02, 1.177158e+01
min/max/ave velocity = 1.097027e+00, 1.029287e+02, 1.176877e+01
min/max/ave velocity = 1.097569e+00, 1.029286e+02, 1.176742e+01
min/max/ave velocity = 1.104415e+00, 1.029286e+02, 1.176646e+01
min/max/ave velocity = 1.118684e+00, 1.029286e+02, 1.176620e+01
min/max/ave velocity = 1.141441e+00, 1.029286e+02, 1.176751e+01
min/max/ave velocity = 1.173665e+00, 1.029285e+02, 1.177306e+01
min/max/ave velocity = 1.216184e+00, 1.029285e+02, 1.179579e+01
min/max/ave velocity = 1.239006e+00, 1.029285e+02, 1.180670e+01
min/max/ave velocity = 1.246417e+00, 1.029285e+02, 1.181513e+01
min/max/ave velocity = 1.231190e+00, 1.029285e+02, 1.182377e+01
min/max/ave velocity = 1.153389e+00, 1.029285e+02, 1.181159e+01
min/max/ave velocity = 1.103734e+00, 1.029284e+02, 1.180302e+01
min/max/ave velocity = 1.135097e+00, 1.029284e+02, 1.179786e+01
min/max/ave velocity = 1.137199e+00, 1.029284e+02, 1.179617e+01
min/max/ave velocity = 1.122526e+00, 1.029284e+02, 1.180744e+01
min/max/ave velocity = 1.098024e+00, 1.029284e+02, 1.178529e+01
min/max/ave velocity = 1.067235e+00, 1.029284e+02, 1.177913e+01
min/max/ave velocity = 1.033354e+00, 1.029283e+02, 1.177435e+01
min/max/ave velocity = 1.002421e+00, 1.029283e+02, 1.176664e+01
min/max/ave velocity = 7.783015e-01, 1.029283e+02, 1.175147e+01
min/max/ave velocity = 1.033539e+00, 1.029283e+02, 1.175242e+01
min/max/ave velocity = 1.072759e+00, 1.029283e+02, 1.175251e+01
min/max/ave velocity = 1.063562e+00, 1.029283e+02, 1.175156e+01
min/max/ave velocity = 1.055308e+00, 1.029283e+02, 1.174828e+01
min/max/ave velocity = 1.048081e+00, 1.029283e+02, 1.174363e+01
min/max/ave velocity = 1.041952e+00, 1.029282e+02, 1.173929e+01
min/max/ave velocity = 1.037005e+00, 1.029282e+02, 1.173590e+01
min/max/ave velocity = 1.033344e+00, 1.029282e+02, 1.173357e+01
min/max/ave velocity = 1.031089e+00, 1.029282e+02, 1.173201e+01
min/max/ave velocity = 1.030375e+00, 1.029282e+02, 1.173065e+01
min/max/ave velocity = 1.031348e+00, 1.029282e+02, 1.172894e+01
min/max/ave velocity = 1.034171e+00, 1.029282e+02, 1.172676e+01
min/max/ave velocity = 1.039021e+00, 1.029282e+02, 1.172452e+01
min/max/ave velocity = 1.046093e+00, 1.029282e+02, 1.172328e+01
min/max/ave velocity = 1.055603e+00, 1.029282e+02, 1.172362e+01
min/max/ave velocity = 1.050112e+00, 1.029282e+02, 1.172453e+01
min/max/ave velocity = 1.008244e+00, 1.029281e+02, 1.172476e+01
Average time = 0.032228 (ms) per step with 100 elements 5.47 KB over 800 steps 0.030107 0.001006 0.000896
1600 steps
min/max/ave velocity = 1.065529e-01, 9.341348e-01, 3.215404e-01
min/max/ave velocity = 1.321342e+00, 1.029963e+02, 8.695904e+00
min/max/ave velocity = 2.169287e+00, 1.029562e+02, 1.391408e+01
min/max/ave velocity = 1.154961e+00, 1.029456e+02, 1.456290e+01
min/max/ave velocity = 2.506479e+00, 1.029407e+02, 1.346930e+01
min/max/ave velocity = 1.476830e+00, 1.029379e+02, 1.305055e+01
min/max/ave velocity = 8.619377e-01, 1.029361e+02, 1.277482e+01
min/max/ave velocity = 8.759874e-01, 1.029348e+02, 1.257947e+01
min/max/ave velocity = 7.625652e-01, 1.029339e+02, 1.244781e+01
min/max/ave velocity = 7.230864e-01, 1.029331e+02, 1.234642e+01
min/max/ave velocity = 7.213024e-01, 1.029326e+02, 1.226545e+01
min/max/ave velocity = 7.345096e-01, 1.029321e+02, 1.219707e+01
min/max/ave velocity = 7.529621e-01, 1.029317e+02, 1.213451e+01
min/max/ave velocity = 7.730955e-01, 1.029314e+02, 1.209572e+01
min/max/ave velocity = 7.936932e-01, 1.029311e+02, 1.213220e+01
min/max/ave velocity = 8.139927e-01, 1.029308e+02, 1.209699e+01
min/max/ave velocity = 2.534186e-01, 1.029306e+02, 1.205643e+01
min/max/ave velocity = 7.013766e-01, 1.029304e+02, 1.203475e+01
min/max/ave velocity = 8.700423e-01, 1.029303e+02, 1.200614e+01
min/max/ave velocity = 8.880333e-01, 1.029301e+02, 1.198396e+01
min/max/ave velocity = 9.057384e-01, 1.029300e+02, 1.196925e+01
min/max/ave velocity = 9.230546e-01, 1.029299e+02, 1.195899e+01
min/max/ave velocity = 9.398786e-01, 1.029298e+02, 1.194986e+01
min/max/ave velocity = 9.561383e-01, 1.029297e+02, 1.193925e+01
min/max/ave velocity = 9.717959e-01, 1.029296e+02, 1.192632e+01
min/max/ave velocity = 9.868422e-01, 1.029295e+02, 1.191213e+01
min/max/ave velocity = 9.767439e-01, 1.029294e+02, 1.189770e+01
min/max/ave velocity = 8.607365e-01, 1.029294e+02, 1.188341e+01
min/max/ave velocity = 7.867648e-01, 1.029293e+02, 1.187005e+01
min/max/ave velocity = 1.041309e+00, 1.029292e+02, 1.186662e+01
min/max/ave velocity = 1.053668e+00, 1.029292e+02, 1.185863e+01
min/max/ave velocity = 1.065589e+00, 1.029291e+02, 1.184556e+01
min/max/ave velocity = 1.077099e+00, 1.029291e+02, 1.183534e+01
min/max/ave velocity = 1.088226e+00, 1.029290e+02, 1.182725e+01
min/max/ave velocity = 1.098998e+00, 1.029290e+02, 1.182122e+01
min/max/ave velocity = 1.109439e+00, 1.029289e+02, 1.181846e+01
min/max/ave velocity = 1.119574e+00, 1.029289e+02, 1.181237e+01
min/max/ave velocity = 1.129425e+00, 1.029289e+02, 1.180217e+01
min/max/ave velocity = 1.139011e+00, 1.029288e+02, 1.179576e+01
min/max/ave velocity = 1.136510e+00, 1.029288e+02, 1.179176e+01
min/max/ave velocity = 1.122280e+00, 1.029288e+02, 1.178836e+01
min/max/ave velocity = 1.110399e+00, 1.029287e+02, 1.177847e+01
min/max/ave velocity = 1.101662e+00, 1.029287e+02, 1.177158e+01
min/max/ave velocity = 1.097027e+00, 1.029287e+02, 1.176877e+01
min/max/ave velocity = 1.097569e+00, 1.029286e+02, 1.176742e+01
min/max/ave velocity = 1.104415e+00, 1.029286e+02, 1.176646e+01
min/max/ave velocity = 1.118684e+00, 1.029286e+02, 1.176620e+01
min/max/ave velocity = 1.141441e+00, 1.029286e+02, 1.176751e+01
min/max/ave velocity = 1.173665e+00, 1.029285e+02, 1.177306e+01
min/max/ave velocity = 1.216184e+00, 1.029285e+02, 1.179579e+01
min/max/ave velocity = 1.239006e+00, 1.029285e+02, 1.180670e+01
min/max/ave velocity = 1.246417e+00, 1.029285e+02, 1.181513e+01
min/max/ave velocity = 1.231190e+00, 1.029285e+02, 1.182377e+01
min/max/ave velocity = 1.153389e+00, 1.029285e+02, 1.181159e+01
min/max/ave velocity = 1.103734e+00, 1.029284e+02, 1.180302e+01
min/max/ave velocity = 1.135097e+00, 1.029284e+02, 1.179786e+01
min/max/ave velocity = 1.137199e+00, 1.029284e+02, 1.179617e+01
min/max/ave velocity = 1.122526e+00, 1.029284e+02, 1.180744e+01
min/max/ave velocity = 1.098024e+00, 1.029284e+02, 1.178529e+01
min/max/ave velocity = 1.067235e+00, 1.029284e+02, 1.177913e+01
min/max/ave velocity = 1.033354e+00, 1.029283e+02, 1.177435e+01
min/max/ave velocity = 1.002421e+00, 1.029283e+02, 1.176664e+01
min/max/ave velocity = 7.783015e-01, 1.029283e+02, 1.175147e+01
min/max/ave velocity = 1.033539e+00, 1.029283e+02, 1.175242e+01
min/max/ave velocity = 1.072759e+00, 1.029283e+02, 1.175251e+01
min/max/ave velocity = 1.063562e+00, 1.029283e+02, 1.175156e+01
min/max/ave velocity = 1.055308e+00, 1.029283e+02, 1.174828e+01
min/max/ave velocity = 1.048081e+00, 1.029283e+02, 1.174363e+01
min/max/ave velocity = 1.041952e+00, 1.029282e+02, 1.173929e+01
min/max/ave velocity = 1.037005e+00, 1.029282e+02, 1.173590e+01
min/max/ave velocity = 1.033344e+00, 1.029282e+02, 1.173357e+01
min/max/ave velocity = 1.031089e+00, 1.029282e+02, 1.173201e+01
min/max/ave velocity = 1.030375e+00, 1.029282e+02, 1.173065e+01
min/max/ave velocity = 1.031348e+00, 1.029282e+02, 1.172894e+01
min/max/ave velocity = 1.034171e+00, 1.029282e+02, 1.172676e+01
min/max/ave velocity = 1.039021e+00, 1.029282e+02, 1.172452e+01
min/max/ave velocity = 1.046093e+00, 1.029282e+02, 1.172328e+01
min/max/ave velocity = 1.055603e+00, 1.029282e+02, 1.172362e+01
min/max/ave velocity = 1.050112e+00, 1.029282e+02, 1.172453e+01
min/max/ave velocity = 1.008244e+00, 1.029281e+02, 1.172476e+01
min/max/ave velocity = 9.645384e-01, 1.029281e+02, 1.172415e+01
min/max/ave velocity = 9.235633e-01, 1.029281e+02, 1.172334e+01
min/max/ave velocity = 8.895961e-01, 1.029281e+02, 1.172284e+01
min/max/ave velocity = 8.653036e-01, 1.029281e+02, 1.172266e+01
min/max/ave velocity = 8.514678e-01, 1.029281e+02, 1.172262e+01
min/max/ave velocity = 8.475836e-01, 1.029281e+02, 1.172267e+01
min/max/ave velocity = 8.527159e-01, 1.029281e+02, 1.172281e+01
min/max/ave velocity = 8.662299e-01, 1.029281e+02, 1.172306e+01
min/max/ave velocity = 8.883785e-01, 1.029281e+02, 1.172346e+01
min/max/ave velocity = 9.209387e-01, 1.029281e+02, 1.172404e+01
min/max/ave velocity = 9.680709e-01, 1.029281e+02, 1.172481e+01
min/max/ave velocity = 1.036600e+00, 1.029281e+02, 1.172562e+01
min/max/ave velocity = 1.129487e+00, 1.029281e+02, 1.172591e+01
min/max/ave velocity = 1.222089e+00, 1.029281e+02, 1.172455e+01
min/max/ave velocity = 1.210336e+00, 1.029280e+02, 1.172146e+01
min/max/ave velocity = 9.953536e-01, 1.029280e+02, 1.171832e+01
min/max/ave velocity = 8.418086e-01, 1.029280e+02, 1.171576e+01
min/max/ave velocity = 7.412290e-01, 1.029280e+02, 1.171358e+01
min/max/ave velocity = 6.777513e-01, 1.029280e+02, 1.171170e+01
min/max/ave velocity = 6.391864e-01, 1.029280e+02, 1.171009e+01
min/max/ave velocity = 6.172270e-01, 1.029280e+02, 1.170869e+01
min/max/ave velocity = 6.063185e-01, 1.029280e+02, 1.170748e+01
min/max/ave velocity = 6.027508e-01, 1.029280e+02, 1.170640e+01
min/max/ave velocity = 6.040412e-01, 1.029280e+02, 1.170545e+01
min/max/ave velocity = 6.085246e-01, 1.029280e+02, 1.170459e+01
min/max/ave velocity = 6.150800e-01, 1.029280e+02, 1.170384e+01
min/max/ave velocity = 6.229502e-01, 1.029280e+02, 1.170324e+01
min/max/ave velocity = 6.316214e-01, 1.029280e+02, 1.170307e+01
min/max/ave velocity = 6.407444e-01, 1.029280e+02, 1.170356e+01
min/max/ave velocity = 6.500816e-01, 1.029280e+02, 1.169950e+01
min/max/ave velocity = 6.594717e-01, 1.029280e+02, 1.169854e+01
min/max/ave velocity = 6.688064e-01, 1.029280e+02, 1.169767e+01
min/max/ave velocity = 6.780137e-01, 1.029280e+02, 1.169678e+01
min/max/ave velocity = 6.870473e-01, 1.029280e+02, 1.169586e+01
min/max/ave velocity = 6.958789e-01, 1.029280e+02, 1.169489e+01
min/max/ave velocity = 7.044924e-01, 1.029280e+02, 1.169384e+01
min/max/ave velocity = 7.128808e-01, 1.029279e+02, 1.169270e+01
min/max/ave velocity = 7.210433e-01, 1.029279e+02, 1.169145e+01
min/max/ave velocity = 7.289833e-01, 1.029279e+02, 1.169007e+01
min/max/ave velocity = 7.367072e-01, 1.029279e+02, 1.168853e+01
min/max/ave velocity = 7.442233e-01, 1.029279e+02, 1.168680e+01
min/max/ave velocity = 7.515413e-01, 1.029279e+02, 1.168490e+01
min/max/ave velocity = 7.586716e-01, 1.029279e+02, 1.168297e+01
min/max/ave velocity = 7.656251e-01, 1.029279e+02, 1.168144e+01
min/max/ave velocity = 7.724128e-01, 1.029279e+02, 1.168098e+01
min/max/ave velocity = 7.790456e-01, 1.029279e+02, 1.168181e+01
min/max/ave velocity = 7.855343e-01, 1.029279e+02, 1.168318e+01
min/max/ave velocity = 7.918895e-01, 1.029279e+02, 1.168428e+01
min/max/ave velocity = 7.909567e-01, 1.029279e+02, 1.168485e+01
min/max/ave velocity = 7.906497e-01, 1.029279e+02, 1.168494e+01
min/max/ave velocity = 7.928965e-01, 1.029279e+02, 1.168470e+01
min/max/ave velocity = 7.977207e-01, 1.029279e+02, 1.168422e+01
min/max/ave velocity = 8.050862e-01, 1.029279e+02, 1.168360e+01
min/max/ave velocity = 8.148979e-01, 1.029279e+02, 1.168290e+01
min/max/ave velocity = 8.270068e-01, 1.029279e+02, 1.168216e+01
min/max/ave velocity = 8.390463e-01, 1.029279e+02, 1.168141e+01
min/max/ave velocity = 8.446001e-01, 1.029279e+02, 1.168067e+01
min/max/ave velocity = 8.500995e-01, 1.029279e+02, 1.167995e+01
min/max/ave velocity = 8.555494e-01, 1.029279e+02, 1.167925e+01
min/max/ave velocity = 8.609541e-01, 1.029279e+02, 1.167858e+01
min/max/ave velocity = 8.663170e-01, 1.029279e+02, 1.167794e+01
min/max/ave velocity = 8.716412e-01, 1.029279e+02, 1.167732e+01
min/max/ave velocity = 8.769292e-01, 1.029279e+02, 1.167672e+01
min/max/ave velocity = 8.821828e-01, 1.029279e+02, 1.167615e+01
min/max/ave velocity = 8.874034e-01, 1.029279e+02, 1.167561e+01
min/max/ave velocity = 8.925920e-01, 1.029279e+02, 1.167508e+01
min/max/ave velocity = 8.977489e-01, 1.029279e+02, 1.167458e+01
min/max/ave velocity = 9.028742e-01, 1.029279e+02, 1.167410e+01
min/max/ave velocity = 9.079678e-01, 1.029279e+02, 1.167366e+01
min/max/ave velocity = 9.130291e-01, 1.029279e+02, 1.167324e+01
min/max/ave velocity = 9.180572e-01, 1.029279e+02, 1.167286e+01
min/max/ave velocity = 9.230513e-01, 1.029279e+02, 1.167252e+01
min/max/ave velocity = 9.280103e-01, 1.029278e+02, 1.167223e+01
min/max/ave velocity = 9.329330e-01, 1.029278e+02, 1.167199e+01
min/max/ave velocity = 9.378182e-01, 1.029278e+02, 1.167181e+01
min/max/ave velocity = 9.426646e-01, 1.029278e+02, 1.167166e+01
min/max/ave velocity = 9.474712e-01, 1.029278e+02, 1.167152e+01
min/max/ave velocity = 9.522367e-01, 1.029278e+02, 1.167126e+01
min/max/ave velocity = 9.569601e-01, 1.029278e+02, 1.167075e+01
min/max/ave velocity = 9.616406e-01, 1.029278e+02, 1.166994e+01
Average time = 0.033739 (ms) per step with 100 elements 5.47 KB over 1600 steps 0.031759 0.001063 0.000784
BEGIN G++ COMPILER SECTION
100 steps
min/max/ave velocity = 1.065529e-01, 9.341348e-01, 3.215404e-01
min/max/ave velocity = 1.321342e+00, 1.029963e+02, 8.695904e+00
min/max/ave velocity = 2.169287e+00, 1.029562e+02, 1.391408e+01
min/max/ave velocity = 1.154961e+00, 1.029456e+02, 1.456290e+01
min/max/ave velocity = 2.506479e+00, 1.029407e+02, 1.346930e+01
min/max/ave velocity = 1.476830e+00, 1.029379e+02, 1.305055e+01
min/max/ave velocity = 8.619377e-01, 1.029361e+02, 1.277482e+01
min/max/ave velocity = 8.759874e-01, 1.029348e+02, 1.257947e+01
min/max/ave velocity = 7.625652e-01, 1.029339e+02, 1.244781e+01
min/max/ave velocity = 7.230864e-01, 1.029331e+02, 1.234642e+01
Average time = 0.438937 (ms) per step with 100 elements 5.47 KB over 100 steps 0.434427 0.001502 0.002838
200 steps
min/max/ave velocity = 1.065529e-01, 9.341348e-01, 3.215404e-01
min/max/ave velocity = 1.321342e+00, 1.029963e+02, 8.695904e+00
min/max/ave velocity = 2.169287e+00, 1.029562e+02, 1.391408e+01
min/max/ave velocity = 1.154961e+00, 1.029456e+02, 1.456290e+01
min/max/ave velocity = 2.506479e+00, 1.029407e+02, 1.346930e+01
min/max/ave velocity = 1.476830e+00, 1.029379e+02, 1.305055e+01
min/max/ave velocity = 8.619377e-01, 1.029361e+02, 1.277482e+01
min/max/ave velocity = 8.759874e-01, 1.029348e+02, 1.257947e+01
min/max/ave velocity = 7.625652e-01, 1.029339e+02, 1.244781e+01
min/max/ave velocity = 7.230864e-01, 1.029331e+02, 1.234642e+01
min/max/ave velocity = 7.213024e-01, 1.029326e+02, 1.226545e+01
min/max/ave velocity = 7.345096e-01, 1.029321e+02, 1.219707e+01
min/max/ave velocity = 7.529621e-01, 1.029317e+02, 1.213451e+01
min/max/ave velocity = 7.730955e-01, 1.029314e+02, 1.209572e+01
min/max/ave velocity = 7.936932e-01, 1.029311e+02, 1.213220e+01
min/max/ave velocity = 8.139927e-01, 1.029308e+02, 1.209699e+01
min/max/ave velocity = 2.534186e-01, 1.029306e+02, 1.205643e+01
min/max/ave velocity = 7.013766e-01, 1.029304e+02, 1.203475e+01
min/max/ave velocity = 8.700423e-01, 1.029303e+02, 1.200614e+01
min/max/ave velocity = 8.880333e-01, 1.029301e+02, 1.198396e+01
Average time = 0.426993 (ms) per step with 100 elements 5.47 KB over 200 steps 0.423413 0.001489 0.001930
400 steps
min/max/ave velocity = 1.065529e-01, 9.341348e-01, 3.215404e-01
min/max/ave velocity = 1.321342e+00, 1.029963e+02, 8.695904e+00
min/max/ave velocity = 2.169287e+00, 1.029562e+02, 1.391408e+01
min/max/ave velocity = 1.154961e+00, 1.029456e+02, 1.456290e+01
min/max/ave velocity = 2.506479e+00, 1.029407e+02, 1.346930e+01
min/max/ave velocity = 1.476830e+00, 1.029379e+02, 1.305055e+01
min/max/ave velocity = 8.619377e-01, 1.029361e+02, 1.277482e+01
min/max/ave velocity = 8.759874e-01, 1.029348e+02, 1.257947e+01
min/max/ave velocity = 7.625652e-01, 1.029339e+02, 1.244781e+01
min/max/ave velocity = 7.230864e-01, 1.029331e+02, 1.234642e+01
min/max/ave velocity = 7.213024e-01, 1.029326e+02, 1.226545e+01
min/max/ave velocity = 7.345096e-01, 1.029321e+02, 1.219707e+01
min/max/ave velocity = 7.529621e-01, 1.029317e+02, 1.213451e+01
min/max/ave velocity = 7.730955e-01, 1.029314e+02, 1.209572e+01
min/max/ave velocity = 7.936932e-01, 1.029311e+02, 1.213220e+01
min/max/ave velocity = 8.139927e-01, 1.029308e+02, 1.209699e+01
min/max/ave velocity = 2.534186e-01, 1.029306e+02, 1.205643e+01
min/max/ave velocity = 7.013766e-01, 1.029304e+02, 1.203475e+01
min/max/ave velocity = 8.700423e-01, 1.029303e+02, 1.200614e+01
min/max/ave velocity = 8.880333e-01, 1.029301e+02, 1.198396e+01
min/max/ave velocity = 9.057384e-01, 1.029300e+02, 1.196925e+01
min/max/ave velocity = 9.230546e-01, 1.029299e+02, 1.195899e+01
min/max/ave velocity = 9.398786e-01, 1.029298e+02, 1.194986e+01
min/max/ave velocity = 9.561383e-01, 1.029297e+02, 1.193925e+01
min/max/ave velocity = 9.717959e-01, 1.029296e+02, 1.192632e+01
min/max/ave velocity = 9.868422e-01, 1.029295e+02, 1.191213e+01
min/max/ave velocity = 9.767439e-01, 1.029294e+02, 1.189770e+01
min/max/ave velocity = 8.607365e-01, 1.029294e+02, 1.188341e+01
min/max/ave velocity = 7.867648e-01, 1.029293e+02, 1.187005e+01
min/max/ave velocity = 1.041309e+00, 1.029292e+02, 1.186662e+01
min/max/ave velocity = 1.053668e+00, 1.029292e+02, 1.185863e+01
min/max/ave velocity = 1.065589e+00, 1.029291e+02, 1.184556e+01
min/max/ave velocity = 1.077099e+00, 1.029291e+02, 1.183534e+01
min/max/ave velocity = 1.088226e+00, 1.029290e+02, 1.182725e+01
min/max/ave velocity = 1.098998e+00, 1.029290e+02, 1.182122e+01
min/max/ave velocity = 1.109439e+00, 1.029289e+02, 1.181846e+01
min/max/ave velocity = 1.119574e+00, 1.029289e+02, 1.181237e+01
min/max/ave velocity = 1.129425e+00, 1.029289e+02, 1.180217e+01
min/max/ave velocity = 1.139011e+00, 1.029288e+02, 1.179576e+01
min/max/ave velocity = 1.136510e+00, 1.029288e+02, 1.179176e+01
Average time = 0.424332 (ms) per step with 100 elements 5.47 KB over 400 steps 0.421144 0.001498 0.001530
800 steps
min/max/ave velocity = 1.065529e-01, 9.341348e-01, 3.215404e-01
min/max/ave velocity = 1.321342e+00, 1.029963e+02, 8.695904e+00
min/max/ave velocity = 2.169287e+00, 1.029562e+02, 1.391408e+01
min/max/ave velocity = 1.154961e+00, 1.029456e+02, 1.456290e+01
min/max/ave velocity = 2.506479e+00, 1.029407e+02, 1.346930e+01
min/max/ave velocity = 1.476830e+00, 1.029379e+02, 1.305055e+01
min/max/ave velocity = 8.619377e-01, 1.029361e+02, 1.277482e+01
min/max/ave velocity = 8.759874e-01, 1.029348e+02, 1.257947e+01
min/max/ave velocity = 7.625652e-01, 1.029339e+02, 1.244781e+01
min/max/ave velocity = 7.230864e-01, 1.029331e+02, 1.234642e+01
min/max/ave velocity = 7.213024e-01, 1.029326e+02, 1.226545e+01
min/max/ave velocity = 7.345096e-01, 1.029321e+02, 1.219707e+01
min/max/ave velocity = 7.529621e-01, 1.029317e+02, 1.213451e+01
min/max/ave velocity = 7.730955e-01, 1.029314e+02, 1.209572e+01
min/max/ave velocity = 7.936932e-01, 1.029311e+02, 1.213220e+01
min/max/ave velocity = 8.139927e-01, 1.029308e+02, 1.209699e+01
min/max/ave velocity = 2.534186e-01, 1.029306e+02, 1.205643e+01
min/max/ave velocity = 7.013766e-01, 1.029304e+02, 1.203475e+01
min/max/ave velocity = 8.700423e-01, 1.029303e+02, 1.200614e+01
min/max/ave velocity = 8.880333e-01, 1.029301e+02, 1.198396e+01
min/max/ave velocity = 9.057384e-01, 1.029300e+02, 1.196925e+01
min/max/ave velocity = 9.230546e-01, 1.029299e+02, 1.195899e+01
min/max/ave velocity = 9.398786e-01, 1.029298e+02, 1.194986e+01
min/max/ave velocity = 9.561383e-01, 1.029297e+02, 1.193925e+01
min/max/ave velocity = 9.717959e-01, 1.029296e+02, 1.192632e+01
min/max/ave velocity = 9.868422e-01, 1.029295e+02, 1.191213e+01
min/max/ave velocity = 9.767439e-01, 1.029294e+02, 1.189770e+01
min/max/ave velocity = 8.607365e-01, 1.029294e+02, 1.188341e+01
min/max/ave velocity = 7.867648e-01, 1.029293e+02, 1.187005e+01
min/max/ave velocity = 1.041309e+00, 1.029292e+02, 1.186662e+01
min/max/ave velocity = 1.053668e+00, 1.029292e+02, 1.185863e+01
min/max/ave velocity = 1.065589e+00, 1.029291e+02, 1.184556e+01
min/max/ave velocity = 1.077099e+00, 1.029291e+02, 1.183534e+01
min/max/ave velocity = 1.088226e+00, 1.029290e+02, 1.182725e+01
min/max/ave velocity = 1.098998e+00, 1.029290e+02, 1.182122e+01
min/max/ave velocity = 1.109439e+00, 1.029289e+02, 1.181846e+01
min/max/ave velocity = 1.119574e+00, 1.029289e+02, 1.181237e+01
min/max/ave velocity = 1.129425e+00, 1.029289e+02, 1.180217e+01
min/max/ave velocity = 1.139011e+00, 1.029288e+02, 1.179576e+01
min/max/ave velocity = 1.136510e+00, 1.029288e+02, 1.179176e+01
min/max/ave velocity = 1.122280e+00, 1.029288e+02, 1.178836e+01
min/max/ave velocity = 1.110399e+00, 1.029287e+02, 1.177847e+01
min/max/ave velocity = 1.101662e+00, 1.029287e+02, 1.177158e+01
min/max/ave velocity = 1.097027e+00, 1.029287e+02, 1.176877e+01
min/max/ave velocity = 1.097569e+00, 1.029286e+02, 1.176742e+01
min/max/ave velocity = 1.104415e+00, 1.029286e+02, 1.176646e+01
min/max/ave velocity = 1.118684e+00, 1.029286e+02, 1.176620e+01
min/max/ave velocity = 1.141441e+00, 1.029286e+02, 1.176751e+01
min/max/ave velocity = 1.173665e+00, 1.029285e+02, 1.177306e+01
min/max/ave velocity = 1.216184e+00, 1.029285e+02, 1.179579e+01
min/max/ave velocity = 1.239006e+00, 1.029285e+02, 1.180670e+01
min/max/ave velocity = 1.246417e+00, 1.029285e+02, 1.181513e+01
min/max/ave velocity = 1.231190e+00, 1.029285e+02, 1.182377e+01
min/max/ave velocity = 1.153389e+00, 1.029285e+02, 1.181159e+01
min/max/ave velocity = 1.103734e+00, 1.029284e+02, 1.180302e+01
min/max/ave velocity = 1.135097e+00, 1.029284e+02, 1.179786e+01
min/max/ave velocity = 1.137199e+00, 1.029284e+02, 1.179617e+01
min/max/ave velocity = 1.122526e+00, 1.029284e+02, 1.180744e+01
min/max/ave velocity = 1.098024e+00, 1.029284e+02, 1.178529e+01
min/max/ave velocity = 1.067235e+00, 1.029284e+02, 1.177913e+01
min/max/ave velocity = 1.033354e+00, 1.029283e+02, 1.177435e+01
min/max/ave velocity = 1.002422e+00, 1.029283e+02, 1.176664e+01
min/max/ave velocity = 7.783015e-01, 1.029283e+02, 1.175147e+01
min/max/ave velocity = 1.033539e+00, 1.029283e+02, 1.175242e+01
min/max/ave velocity = 1.072759e+00, 1.029283e+02, 1.175251e+01
min/max/ave velocity = 1.063562e+00, 1.029283e+02, 1.175156e+01
min/max/ave velocity = 1.055308e+00, 1.029283e+02, 1.174828e+01
min/max/ave velocity = 1.048081e+00, 1.029283e+02, 1.174363e+01
min/max/ave velocity = 1.041952e+00, 1.029282e+02, 1.173929e+01
min/max/ave velocity = 1.037005e+00, 1.029282e+02, 1.173590e+01
min/max/ave velocity = 1.033344e+00, 1.029282e+02, 1.173357e+01
min/max/ave velocity = 1.031089e+00, 1.029282e+02, 1.173201e+01
min/max/ave velocity = 1.030375e+00, 1.029282e+02, 1.173065e+01
min/max/ave velocity = 1.031348e+00, 1.029282e+02, 1.172894e+01
min/max/ave velocity = 1.034171e+00, 1.029282e+02, 1.172676e+01
min/max/ave velocity = 1.039021e+00, 1.029282e+02, 1.172452e+01
min/max/ave velocity = 1.046093e+00, 1.029282e+02, 1.172328e+01
min/max/ave velocity = 1.055603e+00, 1.029282e+02, 1.172362e+01
min/max/ave velocity = 1.050112e+00, 1.029282e+02, 1.172453e+01
min/max/ave velocity = 1.008244e+00, 1.029281e+02, 1.172476e+01
Average time = 0.437330 (ms) per step with 100 elements 5.47 KB over 800 steps 0.434275 0.001578 0.001313
1600 steps
min/max/ave velocity = 1.065529e-01, 9.341348e-01, 3.215404e-01
min/max/ave velocity = 1.321342e+00, 1.029963e+02, 8.695904e+00
min/max/ave velocity = 2.169287e+00, 1.029562e+02, 1.391408e+01
min/max/ave velocity = 1.154961e+00, 1.029456e+02, 1.456290e+01
min/max/ave velocity = 2.506479e+00, 1.029407e+02, 1.346930e+01
min/max/ave velocity = 1.476830e+00, 1.029379e+02, 1.305055e+01
min/max/ave velocity = 8.619377e-01, 1.029361e+02, 1.277482e+01
min/max/ave velocity = 8.759874e-01, 1.029348e+02, 1.257947e+01
min/max/ave velocity = 7.625652e-01, 1.029339e+02, 1.244781e+01
min/max/ave velocity = 7.230864e-01, 1.029331e+02, 1.234642e+01
min/max/ave velocity = 7.213024e-01, 1.029326e+02, 1.226545e+01
min/max/ave velocity = 7.345096e-01, 1.029321e+02, 1.219707e+01
min/max/ave velocity = 7.529621e-01, 1.029317e+02, 1.213451e+01
min/max/ave velocity = 7.730955e-01, 1.029314e+02, 1.209572e+01
min/max/ave velocity = 7.936932e-01, 1.029311e+02, 1.213220e+01
min/max/ave velocity = 8.139927e-01, 1.029308e+02, 1.209699e+01
min/max/ave velocity = 2.534186e-01, 1.029306e+02, 1.205643e+01
min/max/ave velocity = 7.013766e-01, 1.029304e+02, 1.203475e+01
min/max/ave velocity = 8.700423e-01, 1.029303e+02, 1.200614e+01
min/max/ave velocity = 8.880333e-01, 1.029301e+02, 1.198396e+01
min/max/ave velocity = 9.057384e-01, 1.029300e+02, 1.196925e+01
min/max/ave velocity = 9.230546e-01, 1.029299e+02, 1.195899e+01
min/max/ave velocity = 9.398786e-01, 1.029298e+02, 1.194986e+01
min/max/ave velocity = 9.561383e-01, 1.029297e+02, 1.193925e+01
min/max/ave velocity = 9.717959e-01, 1.029296e+02, 1.192632e+01
min/max/ave velocity = 9.868422e-01, 1.029295e+02, 1.191213e+01
min/max/ave velocity = 9.767439e-01, 1.029294e+02, 1.189770e+01
min/max/ave velocity = 8.607365e-01, 1.029294e+02, 1.188341e+01
min/max/ave velocity = 7.867648e-01, 1.029293e+02, 1.187005e+01
min/max/ave velocity = 1.041309e+00, 1.029292e+02, 1.186662e+01
min/max/ave velocity = 1.053668e+00, 1.029292e+02, 1.185863e+01
min/max/ave velocity = 1.065589e+00, 1.029291e+02, 1.184556e+01
min/max/ave velocity = 1.077099e+00, 1.029291e+02, 1.183534e+01
min/max/ave velocity = 1.088226e+00, 1.029290e+02, 1.182725e+01
min/max/ave velocity = 1.098998e+00, 1.029290e+02, 1.182122e+01
min/max/ave velocity = 1.109439e+00, 1.029289e+02, 1.181846e+01
min/max/ave velocity = 1.119574e+00, 1.029289e+02, 1.181237e+01
min/max/ave velocity = 1.129425e+00, 1.029289e+02, 1.180217e+01
min/max/ave velocity = 1.139011e+00, 1.029288e+02, 1.179576e+01
min/max/ave velocity = 1.136510e+00, 1.029288e+02, 1.179176e+01
min/max/ave velocity = 1.122280e+00, 1.029288e+02, 1.178836e+01
min/max/ave velocity = 1.110399e+00, 1.029287e+02, 1.177847e+01
min/max/ave velocity = 1.101662e+00, 1.029287e+02, 1.177158e+01
min/max/ave velocity = 1.097027e+00, 1.029287e+02, 1.176877e+01
min/max/ave velocity = 1.097569e+00, 1.029286e+02, 1.176742e+01
min/max/ave velocity = 1.104415e+00, 1.029286e+02, 1.176646e+01
min/max/ave velocity = 1.118684e+00, 1.029286e+02, 1.176620e+01
min/max/ave velocity = 1.141441e+00, 1.029286e+02, 1.176751e+01
min/max/ave velocity = 1.173665e+00, 1.029285e+02, 1.177306e+01
min/max/ave velocity = 1.216184e+00, 1.029285e+02, 1.179579e+01
min/max/ave velocity = 1.239006e+00, 1.029285e+02, 1.180670e+01
min/max/ave velocity = 1.246417e+00, 1.029285e+02, 1.181513e+01
min/max/ave velocity = 1.231190e+00, 1.029285e+02, 1.182377e+01
min/max/ave velocity = 1.153389e+00, 1.029285e+02, 1.181159e+01
min/max/ave velocity = 1.103734e+00, 1.029284e+02, 1.180302e+01
min/max/ave velocity = 1.135097e+00, 1.029284e+02, 1.179786e+01
min/max/ave velocity = 1.137199e+00, 1.029284e+02, 1.179617e+01
min/max/ave velocity = 1.122526e+00, 1.029284e+02, 1.180744e+01
min/max/ave velocity = 1.098024e+00, 1.029284e+02, 1.178529e+01
min/max/ave velocity = 1.067235e+00, 1.029284e+02, 1.177913e+01
min/max/ave velocity = 1.033354e+00, 1.029283e+02, 1.177435e+01
min/max/ave velocity = 1.002422e+00, 1.029283e+02, 1.176664e+01
min/max/ave velocity = 7.783015e-01, 1.029283e+02, 1.175147e+01
min/max/ave velocity = 1.033539e+00, 1.029283e+02, 1.175242e+01
min/max/ave velocity = 1.072759e+00, 1.029283e+02, 1.175251e+01
min/max/ave velocity = 1.063562e+00, 1.029283e+02, 1.175156e+01
min/max/ave velocity = 1.055308e+00, 1.029283e+02, 1.174828e+01
min/max/ave velocity = 1.048081e+00, 1.029283e+02, 1.174363e+01
min/max/ave velocity = 1.041952e+00, 1.029282e+02, 1.173929e+01
min/max/ave velocity = 1.037005e+00, 1.029282e+02, 1.173590e+01
min/max/ave velocity = 1.033344e+00, 1.029282e+02, 1.173357e+01
min/max/ave velocity = 1.031089e+00, 1.029282e+02, 1.173201e+01
min/max/ave velocity = 1.030375e+00, 1.029282e+02, 1.173065e+01
min/max/ave velocity = 1.031348e+00, 1.029282e+02, 1.172894e+01
min/max/ave velocity = 1.034171e+00, 1.029282e+02, 1.172676e+01
min/max/ave velocity = 1.039021e+00, 1.029282e+02, 1.172452e+01
min/max/ave velocity = 1.046093e+00, 1.029282e+02, 1.172328e+01
min/max/ave velocity = 1.055603e+00, 1.029282e+02, 1.172362e+01
min/max/ave velocity = 1.050112e+00, 1.029282e+02, 1.172453e+01
min/max/ave velocity = 1.008244e+00, 1.029281e+02, 1.172476e+01
min/max/ave velocity = 9.645387e-01, 1.029281e+02, 1.172415e+01
min/max/ave velocity = 9.235636e-01, 1.029281e+02, 1.172334e+01
min/max/ave velocity = 8.895963e-01, 1.029281e+02, 1.172284e+01
min/max/ave velocity = 8.653038e-01, 1.029281e+02, 1.172266e+01
min/max/ave velocity = 8.514680e-01, 1.029281e+02, 1.172262e+01
min/max/ave velocity = 8.475838e-01, 1.029281e+02, 1.172267e+01
min/max/ave velocity = 8.527160e-01, 1.029281e+02, 1.172281e+01
min/max/ave velocity = 8.662300e-01, 1.029281e+02, 1.172306e+01
min/max/ave velocity = 8.883785e-01, 1.029281e+02, 1.172346e+01
min/max/ave velocity = 9.209386e-01, 1.029281e+02, 1.172404e+01
min/max/ave velocity = 9.680707e-01, 1.029281e+02, 1.172481e+01
min/max/ave velocity = 1.036600e+00, 1.029281e+02, 1.172562e+01
min/max/ave velocity = 1.129487e+00, 1.029281e+02, 1.172591e+01
min/max/ave velocity = 1.222089e+00, 1.029281e+02, 1.172455e+01
min/max/ave velocity = 1.210337e+00, 1.029280e+02, 1.172146e+01
min/max/ave velocity = 9.953543e-01, 1.029280e+02, 1.171832e+01
min/max/ave velocity = 8.418088e-01, 1.029280e+02, 1.171576e+01
min/max/ave velocity = 7.412291e-01, 1.029280e+02, 1.171358e+01
min/max/ave velocity = 6.777513e-01, 1.029280e+02, 1.171170e+01
min/max/ave velocity = 6.391864e-01, 1.029280e+02, 1.171009e+01
min/max/ave velocity = 6.172271e-01, 1.029280e+02, 1.170869e+01
min/max/ave velocity = 6.063187e-01, 1.029280e+02, 1.170748e+01
min/max/ave velocity = 6.027510e-01, 1.029280e+02, 1.170640e+01
min/max/ave velocity = 6.040414e-01, 1.029280e+02, 1.170545e+01
min/max/ave velocity = 6.085248e-01, 1.029280e+02, 1.170459e+01
min/max/ave velocity = 6.150803e-01, 1.029280e+02, 1.170384e+01
min/max/ave velocity = 6.229505e-01, 1.029280e+02, 1.170324e+01
min/max/ave velocity = 6.316217e-01, 1.029280e+02, 1.170307e+01
min/max/ave velocity = 6.407447e-01, 1.029280e+02, 1.170356e+01
min/max/ave velocity = 6.500819e-01, 1.029280e+02, 1.169950e+01
min/max/ave velocity = 6.594720e-01, 1.029280e+02, 1.169854e+01
min/max/ave velocity = 6.688067e-01, 1.029280e+02, 1.169767e+01
min/max/ave velocity = 6.780140e-01, 1.029280e+02, 1.169678e+01
min/max/ave velocity = 6.870476e-01, 1.029280e+02, 1.169586e+01
min/max/ave velocity = 6.958791e-01, 1.029280e+02, 1.169489e+01
min/max/ave velocity = 7.044926e-01, 1.029280e+02, 1.169384e+01
min/max/ave velocity = 7.128811e-01, 1.029279e+02, 1.169270e+01
min/max/ave velocity = 7.210436e-01, 1.029279e+02, 1.169145e+01
min/max/ave velocity = 7.289836e-01, 1.029279e+02, 1.169007e+01
min/max/ave velocity = 7.367074e-01, 1.029279e+02, 1.168853e+01
min/max/ave velocity = 7.442236e-01, 1.029279e+02, 1.168680e+01
min/max/ave velocity = 7.515416e-01, 1.029279e+02, 1.168490e+01
min/max/ave velocity = 7.586719e-01, 1.029279e+02, 1.168297e+01
min/max/ave velocity = 7.656254e-01, 1.029279e+02, 1.168144e+01
min/max/ave velocity = 7.724130e-01, 1.029279e+02, 1.168098e+01
min/max/ave velocity = 7.790458e-01, 1.029279e+02, 1.168181e+01
min/max/ave velocity = 7.855346e-01, 1.029279e+02, 1.168318e+01
min/max/ave velocity = 7.918897e-01, 1.029279e+02, 1.168428e+01
min/max/ave velocity = 7.909584e-01, 1.029279e+02, 1.168485e+01
min/max/ave velocity = 7.906511e-01, 1.029279e+02, 1.168494e+01
min/max/ave velocity = 7.928977e-01, 1.029279e+02, 1.168470e+01
min/max/ave velocity = 7.977216e-01, 1.029279e+02, 1.168422e+01
min/max/ave velocity = 8.050867e-01, 1.029279e+02, 1.168360e+01
min/max/ave velocity = 8.148981e-01, 1.029279e+02, 1.168290e+01
min/max/ave velocity = 8.270065e-01, 1.029279e+02, 1.168216e+01
min/max/ave velocity = 8.390466e-01, 1.029279e+02, 1.168141e+01
min/max/ave velocity = 8.446003e-01, 1.029279e+02, 1.168067e+01
min/max/ave velocity = 8.500997e-01, 1.029279e+02, 1.167995e+01
min/max/ave velocity = 8.555496e-01, 1.029279e+02, 1.167925e+01
min/max/ave velocity = 8.609542e-01, 1.029279e+02, 1.167858e+01
min/max/ave velocity = 8.663172e-01, 1.029279e+02, 1.167794e+01
min/max/ave velocity = 8.716414e-01, 1.029279e+02, 1.167732e+01
min/max/ave velocity = 8.769294e-01, 1.029279e+02, 1.167672e+01
min/max/ave velocity = 8.821830e-01, 1.029279e+02, 1.167615e+01
min/max/ave velocity = 8.874036e-01, 1.029279e+02, 1.167561e+01
min/max/ave velocity = 8.925921e-01, 1.029279e+02, 1.167508e+01
min/max/ave velocity = 8.977490e-01, 1.029279e+02, 1.167458e+01
min/max/ave velocity = 9.028744e-01, 1.029279e+02, 1.167410e+01
min/max/ave velocity = 9.079680e-01, 1.029279e+02, 1.167366e+01
min/max/ave velocity = 9.130292e-01, 1.029279e+02, 1.167324e+01
min/max/ave velocity = 9.180573e-01, 1.029279e+02, 1.167286e+01
min/max/ave velocity = 9.230514e-01, 1.029279e+02, 1.167252e+01
min/max/ave velocity = 9.280104e-01, 1.029278e+02, 1.167223e+01
min/max/ave velocity = 9.329331e-01, 1.029278e+02, 1.167199e+01
min/max/ave velocity = 9.378183e-01, 1.029278e+02, 1.167181e+01
min/max/ave velocity = 9.426647e-01, 1.029278e+02, 1.167166e+01
min/max/ave velocity = 9.474713e-01, 1.029278e+02, 1.167152e+01
min/max/ave velocity = 9.522368e-01, 1.029278e+02, 1.167126e+01
min/max/ave velocity = 9.569603e-01, 1.029278e+02, 1.167075e+01
min/max/ave velocity = 9.616407e-01, 1.029278e+02, 1.166994e+01
Average time = 0.445642 (ms) per step with 100 elements 5.47 KB over 1600 steps 0.442623 0.001596 0.001252
100 steps
200 steps
min/max/ave velocity = 1.065529e-01, 9.341348e-01, 3.215404e-01
min/max/ave velocity = 1.321342e+00, 1.029963e+02, 8.695904e+00
min/max/ave velocity = 2.169287e+00, 1.029562e+02, 1.391408e+01
min/max/ave velocity = 1.154961e+00, 1.029456e+02, 1.456290e+01
min/max/ave velocity = 2.506479e+00, 1.029407e+02, 1.346930e+01
min/max/ave velocity = 1.476830e+00, 1.029379e+02, 1.305055e+01
min/max/ave velocity = 8.619377e-01, 1.029361e+02, 1.277482e+01
min/max/ave velocity = 8.759874e-01, 1.029348e+02, 1.257947e+01
min/max/ave velocity = 7.625652e-01, 1.029339e+02, 1.244781e+01
min/max/ave velocity = 7.230864e-01, 1.029331e+02, 1.234642e+01
min/max/ave velocity = 7.213024e-01, 1.029326e+02, 1.226545e+01
min/max/ave velocity = 7.345096e-01, 1.029321e+02, 1.219707e+01
min/max/ave velocity = 7.529621e-01, 1.029317e+02, 1.213451e+01
min/max/ave velocity = 7.730955e-01, 1.029314e+02, 1.209572e+01
min/max/ave velocity = 7.936932e-01, 1.029311e+02, 1.213220e+01
min/max/ave velocity = 8.139927e-01, 1.029308e+02, 1.209699e+01
min/max/ave velocity = 2.534186e-01, 1.029306e+02, 1.205643e+01
min/max/ave velocity = 7.013766e-01, 1.029304e+02, 1.203475e+01
min/max/ave velocity = 8.700423e-01, 1.029303e+02, 1.200614e+01
min/max/ave velocity = 8.880333e-01, 1.029301e+02, 1.198396e+01
Average time = 0.429522 (ms) per step with 100 elements 5.47 KB over 200 steps 0.425666 0.001700 0.001992
400 steps
min/max/ave velocity = 1.065529e-01, 9.341348e-01, 3.215404e-01
min/max/ave velocity = 1.321342e+00, 1.029963e+02, 8.695904e+00
min/max/ave velocity = 2.169287e+00, 1.029562e+02, 1.391408e+01
min/max/ave velocity = 1.154961e+00, 1.029456e+02, 1.456290e+01
min/max/ave velocity = 2.506479e+00, 1.029407e+02, 1.346930e+01
min/max/ave velocity = 1.476830e+00, 1.029379e+02, 1.305055e+01
min/max/ave velocity = 8.619377e-01, 1.029361e+02, 1.277482e+01
min/max/ave velocity = 8.759874e-01, 1.029348e+02, 1.257947e+01
min/max/ave velocity = 7.625652e-01, 1.029339e+02, 1.244781e+01
min/max/ave velocity = 7.230864e-01, 1.029331e+02, 1.234642e+01
min/max/ave velocity = 7.213024e-01, 1.029326e+02, 1.226545e+01
min/max/ave velocity = 7.345096e-01, 1.029321e+02, 1.219707e+01
min/max/ave velocity = 7.529621e-01, 1.029317e+02, 1.213451e+01
min/max/ave velocity = 7.730955e-01, 1.029314e+02, 1.209572e+01
min/max/ave velocity = 7.936932e-01, 1.029311e+02, 1.213220e+01
min/max/ave velocity = 8.139927e-01, 1.029308e+02, 1.209699e+01
min/max/ave velocity = 2.534186e-01, 1.029306e+02, 1.205643e+01
min/max/ave velocity = 7.013766e-01, 1.029304e+02, 1.203475e+01
min/max/ave velocity = 8.700423e-01, 1.029303e+02, 1.200614e+01
min/max/ave velocity = 8.880333e-01, 1.029301e+02, 1.198396e+01
min/max/ave velocity = 9.057384e-01, 1.029300e+02, 1.196925e+01
min/max/ave velocity = 9.230546e-01, 1.029299e+02, 1.195899e+01
min/max/ave velocity = 9.398786e-01, 1.029298e+02, 1.194986e+01
min/max/ave velocity = 9.561383e-01, 1.029297e+02, 1.193925e+01
min/max/ave velocity = 9.717959e-01, 1.029296e+02, 1.192632e+01
min/max/ave velocity = 9.868422e-01, 1.029295e+02, 1.191213e+01
min/max/ave velocity = 9.767439e-01, 1.029294e+02, 1.189770e+01
min/max/ave velocity = 8.607365e-01, 1.029294e+02, 1.188341e+01
min/max/ave velocity = 7.867648e-01, 1.029293e+02, 1.187005e+01
min/max/ave velocity = 1.041309e+00, 1.029292e+02, 1.186662e+01
min/max/ave velocity = 1.053668e+00, 1.029292e+02, 1.185863e+01
min/max/ave velocity = 1.065589e+00, 1.029291e+02, 1.184556e+01
min/max/ave velocity = 1.077099e+00, 1.029291e+02, 1.183534e+01
min/max/ave velocity = 1.088226e+00, 1.029290e+02, 1.182725e+01
min/max/ave velocity = 1.098998e+00, 1.029290e+02, 1.182122e+01
min/max/ave velocity = 1.109439e+00, 1.029289e+02, 1.181846e+01
min/max/ave velocity = 1.119574e+00, 1.029289e+02, 1.181237e+01
min/max/ave velocity = 1.129425e+00, 1.029289e+02, 1.180217e+01
min/max/ave velocity = 1.139011e+00, 1.029288e+02, 1.179576e+01
min/max/ave velocity = 1.136510e+00, 1.029288e+02, 1.179176e+01
Average time = 0.432473 (ms) per step with 100 elements 5.47 KB over 400 steps 0.429079 0.001590 0.001643
800 steps
min/max/ave velocity = 1.065529e-01, 9.341348e-01, 3.215404e-01
min/max/ave velocity = 1.321342e+00, 1.029963e+02, 8.695904e+00
min/max/ave velocity = 2.169287e+00, 1.029562e+02, 1.391408e+01
min/max/ave velocity = 1.154961e+00, 1.029456e+02, 1.456290e+01
min/max/ave velocity = 2.506479e+00, 1.029407e+02, 1.346930e+01
min/max/ave velocity = 1.476830e+00, 1.029379e+02, 1.305055e+01
min/max/ave velocity = 8.619377e-01, 1.029361e+02, 1.277482e+01
min/max/ave velocity = 8.759874e-01, 1.029348e+02, 1.257947e+01
min/max/ave velocity = 7.625652e-01, 1.029339e+02, 1.244781e+01
min/max/ave velocity = 7.230864e-01, 1.029331e+02, 1.234642e+01
min/max/ave velocity = 7.213024e-01, 1.029326e+02, 1.226545e+01
min/max/ave velocity = 7.345096e-01, 1.029321e+02, 1.219707e+01
min/max/ave velocity = 7.529621e-01, 1.029317e+02, 1.213451e+01
min/max/ave velocity = 7.730955e-01, 1.029314e+02, 1.209572e+01
min/max/ave velocity = 7.936932e-01, 1.029311e+02, 1.213220e+01
min/max/ave velocity = 8.139927e-01, 1.029308e+02, 1.209699e+01
min/max/ave velocity = 2.534186e-01, 1.029306e+02, 1.205643e+01
min/max/ave velocity = 7.013766e-01, 1.029304e+02, 1.203475e+01
min/max/ave velocity = 8.700423e-01, 1.029303e+02, 1.200614e+01
min/max/ave velocity = 8.880333e-01, 1.029301e+02, 1.198396e+01
min/max/ave velocity = 9.057384e-01, 1.029300e+02, 1.196925e+01
min/max/ave velocity = 9.230546e-01, 1.029299e+02, 1.195899e+01
min/max/ave velocity = 9.398786e-01, 1.029298e+02, 1.194986e+01
min/max/ave velocity = 9.561383e-01, 1.029297e+02, 1.193925e+01
min/max/ave velocity = 9.717959e-01, 1.029296e+02, 1.192632e+01
min/max/ave velocity = 9.868422e-01, 1.029295e+02, 1.191213e+01
min/max/ave velocity = 9.767439e-01, 1.029294e+02, 1.189770e+01
min/max/ave velocity = 8.607365e-01, 1.029294e+02, 1.188341e+01
min/max/ave velocity = 7.867648e-01, 1.029293e+02, 1.187005e+01
min/max/ave velocity = 1.041309e+00, 1.029292e+02, 1.186662e+01
min/max/ave velocity = 1.053668e+00, 1.029292e+02, 1.185863e+01
min/max/ave velocity = 1.065589e+00, 1.029291e+02, 1.184556e+01
min/max/ave velocity = 1.077099e+00, 1.029291e+02, 1.183534e+01
min/max/ave velocity = 1.088226e+00, 1.029290e+02, 1.182725e+01
min/max/ave velocity = 1.098998e+00, 1.029290e+02, 1.182122e+01
min/max/ave velocity = 1.109439e+00, 1.029289e+02, 1.181846e+01
min/max/ave velocity = 1.119574e+00, 1.029289e+02, 1.181237e+01
min/max/ave velocity = 1.129425e+00, 1.029289e+02, 1.180217e+01
min/max/ave velocity = 1.139011e+00, 1.029288e+02, 1.179576e+01
min/max/ave velocity = 1.136510e+00, 1.029288e+02, 1.179176e+01
min/max/ave velocity = 1.122280e+00, 1.029288e+02, 1.178836e+01
min/max/ave velocity = 1.110399e+00, 1.029287e+02, 1.177847e+01
min/max/ave velocity = 1.101662e+00, 1.029287e+02, 1.177158e+01
min/max/ave velocity = 1.097027e+00, 1.029287e+02, 1.176877e+01
min/max/ave velocity = 1.097569e+00, 1.029286e+02, 1.176742e+01
min/max/ave velocity = 1.104415e+00, 1.029286e+02, 1.176646e+01
min/max/ave velocity = 1.118684e+00, 1.029286e+02, 1.176620e+01
min/max/ave velocity = 1.141441e+00, 1.029286e+02, 1.176751e+01
min/max/ave velocity = 1.173665e+00, 1.029285e+02, 1.177306e+01
min/max/ave velocity = 1.216184e+00, 1.029285e+02, 1.179579e+01
min/max/ave velocity = 1.239006e+00, 1.029285e+02, 1.180670e+01
min/max/ave velocity = 1.246417e+00, 1.029285e+02, 1.181513e+01
min/max/ave velocity = 1.231190e+00, 1.029285e+02, 1.182377e+01
min/max/ave velocity = 1.153389e+00, 1.029285e+02, 1.181159e+01
min/max/ave velocity = 1.103734e+00, 1.029284e+02, 1.180302e+01
min/max/ave velocity = 1.135097e+00, 1.029284e+02, 1.179786e+01
min/max/ave velocity = 1.137199e+00, 1.029284e+02, 1.179617e+01
min/max/ave velocity = 1.122526e+00, 1.029284e+02, 1.180744e+01
min/max/ave velocity = 1.098024e+00, 1.029284e+02, 1.178529e+01
min/max/ave velocity = 1.067235e+00, 1.029284e+02, 1.177913e+01
min/max/ave velocity = 1.033354e+00, 1.029283e+02, 1.177435e+01
min/max/ave velocity = 1.002422e+00, 1.029283e+02, 1.176664e+01
min/max/ave velocity = 7.783015e-01, 1.029283e+02, 1.175147e+01
min/max/ave velocity = 1.033539e+00, 1.029283e+02, 1.175242e+01
min/max/ave velocity = 1.072759e+00, 1.029283e+02, 1.175251e+01
min/max/ave velocity = 1.063562e+00, 1.029283e+02, 1.175156e+01
min/max/ave velocity = 1.055308e+00, 1.029283e+02, 1.174828e+01
min/max/ave velocity = 1.048081e+00, 1.029283e+02, 1.174363e+01
min/max/ave velocity = 1.041952e+00, 1.029282e+02, 1.173929e+01
min/max/ave velocity = 1.037005e+00, 1.029282e+02, 1.173590e+01
min/max/ave velocity = 1.033344e+00, 1.029282e+02, 1.173357e+01
min/max/ave velocity = 1.031089e+00, 1.029282e+02, 1.173201e+01
min/max/ave velocity = 1.030375e+00, 1.029282e+02, 1.173065e+01
min/max/ave velocity = 1.031348e+00, 1.029282e+02, 1.172894e+01
min/max/ave velocity = 1.034171e+00, 1.029282e+02, 1.172676e+01
min/max/ave velocity = 1.039021e+00, 1.029282e+02, 1.172452e+01
min/max/ave velocity = 1.046093e+00, 1.029282e+02, 1.172328e+01
min/max/ave velocity = 1.055603e+00, 1.029282e+02, 1.172362e+01
min/max/ave velocity = 1.050112e+00, 1.029282e+02, 1.172453e+01
min/max/ave velocity = 1.008244e+00, 1.029281e+02, 1.172476e+01
Average time = 0.423546 (ms) per step with 100 elements 5.47 KB over 800 steps 0.420555 0.001484 0.001349
1600 steps
min/max/ave velocity = 1.065529e-01, 9.341348e-01, 3.215404e-01
min/max/ave velocity = 1.321342e+00, 1.029963e+02, 8.695904e+00
min/max/ave velocity = 2.169287e+00, 1.029562e+02, 1.391408e+01
min/max/ave velocity = 1.154961e+00, 1.029456e+02, 1.456290e+01
min/max/ave velocity = 2.506479e+00, 1.029407e+02, 1.346930e+01
min/max/ave velocity = 1.476830e+00, 1.029379e+02, 1.305055e+01
min/max/ave velocity = 8.619377e-01, 1.029361e+02, 1.277482e+01
min/max/ave velocity = 8.759874e-01, 1.029348e+02, 1.257947e+01
min/max/ave velocity = 7.625652e-01, 1.029339e+02, 1.244781e+01
min/max/ave velocity = 7.230864e-01, 1.029331e+02, 1.234642e+01
min/max/ave velocity = 7.213024e-01, 1.029326e+02, 1.226545e+01
min/max/ave velocity = 7.345096e-01, 1.029321e+02, 1.219707e+01
min/max/ave velocity = 7.529621e-01, 1.029317e+02, 1.213451e+01
min/max/ave velocity = 7.730955e-01, 1.029314e+02, 1.209572e+01
min/max/ave velocity = 7.936932e-01, 1.029311e+02, 1.213220e+01
min/max/ave velocity = 8.139927e-01, 1.029308e+02, 1.209699e+01
min/max/ave velocity = 2.534186e-01, 1.029306e+02, 1.205643e+01
min/max/ave velocity = 7.013766e-01, 1.029304e+02, 1.203475e+01
min/max/ave velocity = 8.700423e-01, 1.029303e+02, 1.200614e+01
min/max/ave velocity = 8.880333e-01, 1.029301e+02, 1.198396e+01
min/max/ave velocity = 9.057384e-01, 1.029300e+02, 1.196925e+01
min/max/ave velocity = 9.230546e-01, 1.029299e+02, 1.195899e+01
min/max/ave velocity = 9.398786e-01, 1.029298e+02, 1.194986e+01
min/max/ave velocity = 9.561383e-01, 1.029297e+02, 1.193925e+01
min/max/ave velocity = 9.717959e-01, 1.029296e+02, 1.192632e+01
min/max/ave velocity = 9.868422e-01, 1.029295e+02, 1.191213e+01
min/max/ave velocity = 9.767439e-01, 1.029294e+02, 1.189770e+01
min/max/ave velocity = 8.607365e-01, 1.029294e+02, 1.188341e+01
min/max/ave velocity = 7.867648e-01, 1.029293e+02, 1.187005e+01
min/max/ave velocity = 1.041309e+00, 1.029292e+02, 1.186662e+01
min/max/ave velocity = 1.053668e+00, 1.029292e+02, 1.185863e+01
min/max/ave velocity = 1.065589e+00, 1.029291e+02, 1.184556e+01
min/max/ave velocity = 1.077099e+00, 1.029291e+02, 1.183534e+01
min/max/ave velocity = 1.088226e+00, 1.029290e+02, 1.182725e+01
min/max/ave velocity = 1.098998e+00, 1.029290e+02, 1.182122e+01
min/max/ave velocity = 1.109439e+00, 1.029289e+02, 1.181846e+01
min/max/ave velocity = 1.119574e+00, 1.029289e+02, 1.181237e+01
min/max/ave velocity = 1.129425e+00, 1.029289e+02, 1.180217e+01
min/max/ave velocity = 1.139011e+00, 1.029288e+02, 1.179576e+01
min/max/ave velocity = 1.136510e+00, 1.029288e+02, 1.179176e+01
min/max/ave velocity = 1.122280e+00, 1.029288e+02, 1.178836e+01
min/max/ave velocity = 1.110399e+00, 1.029287e+02, 1.177847e+01
min/max/ave velocity = 1.101662e+00, 1.029287e+02, 1.177158e+01
min/max/ave velocity = 1.097027e+00, 1.029287e+02, 1.176877e+01
min/max/ave velocity = 1.097569e+00, 1.029286e+02, 1.176742e+01
min/max/ave velocity = 1.104415e+00, 1.029286e+02, 1.176646e+01
min/max/ave velocity = 1.118684e+00, 1.029286e+02, 1.176620e+01
min/max/ave velocity = 1.141441e+00, 1.029286e+02, 1.176751e+01
min/max/ave velocity = 1.173665e+00, 1.029285e+02, 1.177306e+01
min/max/ave velocity = 1.216184e+00, 1.029285e+02, 1.179579e+01
min/max/ave velocity = 1.239006e+00, 1.029285e+02, 1.180670e+01
min/max/ave velocity = 1.246417e+00, 1.029285e+02, 1.181513e+01
min/max/ave velocity = 1.231190e+00, 1.029285e+02, 1.182377e+01
min/max/ave velocity = 1.153389e+00, 1.029285e+02, 1.181159e+01
min/max/ave velocity = 1.103734e+00, 1.029284e+02, 1.180302e+01
min/max/ave velocity = 1.135097e+00, 1.029284e+02, 1.179786e+01
min/max/ave velocity = 1.137199e+00, 1.029284e+02, 1.179617e+01
min/max/ave velocity = 1.122526e+00, 1.029284e+02, 1.180744e+01
min/max/ave velocity = 1.098024e+00, 1.029284e+02, 1.178529e+01
min/max/ave velocity = 1.067235e+00, 1.029284e+02, 1.177913e+01
min/max/ave velocity = 1.033354e+00, 1.029283e+02, 1.177435e+01
min/max/ave velocity = 1.002422e+00, 1.029283e+02, 1.176664e+01
min/max/ave velocity = 7.783015e-01, 1.029283e+02, 1.175147e+01
min/max/ave velocity = 1.033539e+00, 1.029283e+02, 1.175242e+01
min/max/ave velocity = 1.072759e+00, 1.029283e+02, 1.175251e+01
min/max/ave velocity = 1.063562e+00, 1.029283e+02, 1.175156e+01
min/max/ave velocity = 1.055308e+00, 1.029283e+02, 1.174828e+01
min/max/ave velocity = 1.048081e+00, 1.029283e+02, 1.174363e+01
min/max/ave velocity = 1.041952e+00, 1.029282e+02, 1.173929e+01
min/max/ave velocity = 1.037005e+00, 1.029282e+02, 1.173590e+01
min/max/ave velocity = 1.033344e+00, 1.029282e+02, 1.173357e+01
min/max/ave velocity = 1.031089e+00, 1.029282e+02, 1.173201e+01
min/max/ave velocity = 1.030375e+00, 1.029282e+02, 1.173065e+01
min/max/ave velocity = 1.031348e+00, 1.029282e+02, 1.172894e+01
min/max/ave velocity = 1.034171e+00, 1.029282e+02, 1.172676e+01
min/max/ave velocity = 1.039021e+00, 1.029282e+02, 1.172452e+01
min/max/ave velocity = 1.046093e+00, 1.029282e+02, 1.172328e+01
min/max/ave velocity = 1.055603e+00, 1.029282e+02, 1.172362e+01
min/max/ave velocity = 1.050112e+00, 1.029282e+02, 1.172453e+01
min/max/ave velocity = 1.008244e+00, 1.029281e+02, 1.172476e+01
min/max/ave velocity = 9.645387e-01, 1.029281e+02, 1.172415e+01
min/max/ave velocity = 9.235636e-01, 1.029281e+02, 1.172334e+01
min/max/ave velocity = 8.895963e-01, 1.029281e+02, 1.172284e+01
min/max/ave velocity = 8.653038e-01, 1.029281e+02, 1.172266e+01
min/max/ave velocity = 8.514680e-01, 1.029281e+02, 1.172262e+01
min/max/ave velocity = 8.475838e-01, 1.029281e+02, 1.172267e+01
min/max/ave velocity = 8.527160e-01, 1.029281e+02, 1.172281e+01
min/max/ave velocity = 8.662300e-01, 1.029281e+02, 1.172306e+01
min/max/ave velocity = 8.883785e-01, 1.029281e+02, 1.172346e+01
min/max/ave velocity = 9.209386e-01, 1.029281e+02, 1.172404e+01
min/max/ave velocity = 9.680707e-01, 1.029281e+02, 1.172481e+01
min/max/ave velocity = 1.036600e+00, 1.029281e+02, 1.172562e+01
min/max/ave velocity = 1.129487e+00, 1.029281e+02, 1.172591e+01
min/max/ave velocity = 1.222089e+00, 1.029281e+02, 1.172455e+01
min/max/ave velocity = 1.210337e+00, 1.029280e+02, 1.172146e+01
min/max/ave velocity = 9.953543e-01, 1.029280e+02, 1.171832e+01
min/max/ave velocity = 8.418088e-01, 1.029280e+02, 1.171576e+01
min/max/ave velocity = 7.412291e-01, 1.029280e+02, 1.171358e+01
min/max/ave velocity = 6.777513e-01, 1.029280e+02, 1.171170e+01
min/max/ave velocity = 6.391864e-01, 1.029280e+02, 1.171009e+01
min/max/ave velocity = 6.172271e-01, 1.029280e+02, 1.170869e+01
min/max/ave velocity = 6.063187e-01, 1.029280e+02, 1.170748e+01
min/max/ave velocity = 6.027510e-01, 1.029280e+02, 1.170640e+01
min/max/ave velocity = 6.040414e-01, 1.029280e+02, 1.170545e+01
min/max/ave velocity = 6.085248e-01, 1.029280e+02, 1.170459e+01
min/max/ave velocity = 6.150803e-01, 1.029280e+02, 1.170384e+01
min/max/ave velocity = 6.229505e-01, 1.029280e+02, 1.170324e+01
min/max/ave velocity = 6.316217e-01, 1.029280e+02, 1.170307e+01
min/max/ave velocity = 6.407447e-01, 1.029280e+02, 1.170356e+01
min/max/ave velocity = 6.500819e-01, 1.029280e+02, 1.169950e+01
min/max/ave velocity = 6.594720e-01, 1.029280e+02, 1.169854e+01
min/max/ave velocity = 6.688067e-01, 1.029280e+02, 1.169767e+01
min/max/ave velocity = 6.780140e-01, 1.029280e+02, 1.169678e+01
min/max/ave velocity = 6.870476e-01, 1.029280e+02, 1.169586e+01
min/max/ave velocity = 6.958791e-01, 1.029280e+02, 1.169489e+01
min/max/ave velocity = 7.044926e-01, 1.029280e+02, 1.169384e+01
min/max/ave velocity = 7.128811e-01, 1.029279e+02, 1.169270e+01
min/max/ave velocity = 7.210436e-01, 1.029279e+02, 1.169145e+01
min/max/ave velocity = 7.289836e-01, 1.029279e+02, 1.169007e+01
min/max/ave velocity = 7.367074e-01, 1.029279e+02, 1.168853e+01
min/max/ave velocity = 7.442236e-01, 1.029279e+02, 1.168680e+01
min/max/ave velocity = 7.515416e-01, 1.029279e+02, 1.168490e+01
min/max/ave velocity = 7.586719e-01, 1.029279e+02, 1.168297e+01
min/max/ave velocity = 7.656254e-01, 1.029279e+02, 1.168144e+01
min/max/ave velocity = 7.724130e-01, 1.029279e+02, 1.168098e+01
min/max/ave velocity = 7.790458e-01, 1.029279e+02, 1.168181e+01
min/max/ave velocity = 7.855346e-01, 1.029279e+02, 1.168318e+01
min/max/ave velocity = 7.918897e-01, 1.029279e+02, 1.168428e+01
min/max/ave velocity = 7.909584e-01, 1.029279e+02, 1.168485e+01
min/max/ave velocity = 7.906511e-01, 1.029279e+02, 1.168494e+01
min/max/ave velocity = 7.928977e-01, 1.029279e+02, 1.168470e+01
min/max/ave velocity = 7.977216e-01, 1.029279e+02, 1.168422e+01
min/max/ave velocity = 8.050867e-01, 1.029279e+02, 1.168360e+01
min/max/ave velocity = 8.148981e-01, 1.029279e+02, 1.168290e+01
min/max/ave velocity = 8.270065e-01, 1.029279e+02, 1.168216e+01
min/max/ave velocity = 8.390466e-01, 1.029279e+02, 1.168141e+01
min/max/ave velocity = 8.446003e-01, 1.029279e+02, 1.168067e+01
min/max/ave velocity = 8.500997e-01, 1.029279e+02, 1.167995e+01
min/max/ave velocity = 8.555496e-01, 1.029279e+02, 1.167925e+01
min/max/ave velocity = 8.609542e-01, 1.029279e+02, 1.167858e+01
min/max/ave velocity = 8.663172e-01, 1.029279e+02, 1.167794e+01
min/max/ave velocity = 8.716414e-01, 1.029279e+02, 1.167732e+01
min/max/ave velocity = 8.769294e-01, 1.029279e+02, 1.167672e+01
min/max/ave velocity = 8.821830e-01, 1.029279e+02, 1.167615e+01
min/max/ave velocity = 8.874036e-01, 1.029279e+02, 1.167561e+01
min/max/ave velocity = 8.925921e-01, 1.029279e+02, 1.167508e+01
min/max/ave velocity = 8.977490e-01, 1.029279e+02, 1.167458e+01
min/max/ave velocity = 9.028744e-01, 1.029279e+02, 1.167410e+01
min/max/ave velocity = 9.079680e-01, 1.029279e+02, 1.167366e+01
min/max/ave velocity = 9.130292e-01, 1.029279e+02, 1.167324e+01
min/max/ave velocity = 9.180573e-01, 1.029279e+02, 1.167286e+01
min/max/ave velocity = 9.230514e-01, 1.029279e+02, 1.167252e+01
min/max/ave velocity = 9.280104e-01, 1.029278e+02, 1.167223e+01
min/max/ave velocity = 9.329331e-01, 1.029278e+02, 1.167199e+01
min/max/ave velocity = 9.378183e-01, 1.029278e+02, 1.167181e+01
min/max/ave velocity = 9.426647e-01, 1.029278e+02, 1.167166e+01
min/max/ave velocity = 9.474713e-01, 1.029278e+02, 1.167152e+01
min/max/ave velocity = 9.522368e-01, 1.029278e+02, 1.167126e+01
min/max/ave velocity = 9.569603e-01, 1.029278e+02, 1.167075e+01
min/max/ave velocity = 9.616407e-01, 1.029278e+02, 1.166994e+01
Average time = 0.425701 (ms) per step with 100 elements 5.47 KB over 1600 steps 0.422807 0.001509 0.001226
