1000 particles 1 thread
min/max/ave velocity = 2.458533e-01, 2.904400e+01, 2.636857e+00
min/max/ave velocity = 5.589022e+00, 1.243122e+03, 5.232863e+01
min/max/ave velocity = 4.429486e+00, 1.243119e+03, 4.811707e+01
min/max/ave velocity = 4.219912e+00, 1.243119e+03, 4.748246e+01
min/max/ave velocity = 4.121452e+00, 1.243118e+03, 4.726351e+01
min/max/ave velocity = 4.071669e+00, 1.243118e+03, 4.712275e+01
min/max/ave velocity = 4.041052e+00, 1.243118e+03, 4.703484e+01
min/max/ave velocity = 4.020119e+00, 1.243118e+03, 4.697420e+01
min/max/ave velocity = 4.004863e+00, 1.243118e+03, 4.692985e+01
min/max/ave velocity = 3.993244e+00, 1.243118e+03, 4.689606e+01
Average time = 41.874325 (ms) per step with 1000 elements 54.69 KB over 100 steps 41.851058 0.019523 0.003548
1414 particles 2 thread
min/max/ave velocity = 5.074864e-01, 1.213597e+02, 9.911661e+00
min/max/ave velocity = 7.579158e-01, 1.294430e+03, 7.275694e+01
min/max/ave velocity = 1.191382e+00, 1.294428e+03, 6.820925e+01
min/max/ave velocity = 1.282346e+00, 1.294428e+03, 6.950074e+01
min/max/ave velocity = 1.330844e+00, 1.294428e+03, 6.966244e+01
min/max/ave velocity = 1.359576e+00, 1.294428e+03, 6.846340e+01
min/max/ave velocity = 1.377857e+00, 1.294428e+03, 7.003331e+01
min/max/ave velocity = 1.392717e+00, 1.294428e+03, 6.887235e+01
min/max/ave velocity = 1.404127e+00, 1.294427e+03, 7.370162e+01
min/max/ave velocity = 1.412513e+00, 1.294427e+03, 7.196227e+01
Average time = 44.130904 (ms) per step with 1414 elements 77.33 KB over 100 steps 43.737462 0.341832 0.051397
2000 particles 4 thread
min/max/ave velocity = 2.411596e+00, 1.636482e+02, 3.727298e+01
min/max/ave velocity = 2.800919e-01, 2.288130e+03, 7.597748e+01
min/max/ave velocity = 1.061344e+00, 2.288130e+03, 7.600364e+01
min/max/ave velocity = 1.257520e+00, 2.288130e+03, 7.395132e+01
min/max/ave velocity = 1.103013e+00, 2.288130e+03, 7.302938e+01
min/max/ave velocity = 1.005630e+00, 2.288130e+03, 7.558794e+01
min/max/ave velocity = 9.370297e-01, 2.288129e+03, 7.457376e+01
min/max/ave velocity = 8.910038e-01, 2.288129e+03, 7.199788e+01
min/max/ave velocity = 8.537845e-01, 2.288129e+03, 7.374566e+01
min/max/ave velocity = 8.249326e-01, 2.288129e+03, 7.529815e+01
Average time = 44.938926 (ms) per step with 2000 elements 109.38 KB over 100 steps 43.722876 1.030186 0.185648
2828 particles 8 thread
min/max/ave velocity = 4.259004e+00, 7.200749e+02, 1.179545e+02
min/max/ave velocity = 1.189506e+00, 7.199014e+02, 6.572847e+01
min/max/ave velocity = 2.131362e-01, 7.198997e+02, 6.123502e+01
min/max/ave velocity = 6.104344e-01, 7.198991e+02, 6.378135e+01
min/max/ave velocity = 4.721570e-01, 7.198988e+02, 6.325996e+01
min/max/ave velocity = 3.827024e-01, 7.198986e+02, 5.778059e+01
min/max/ave velocity = 4.146648e-01, 7.198985e+02, 5.714704e+01
min/max/ave velocity = 2.980818e-01, 7.198984e+02, 5.764088e+01
min/max/ave velocity = 5.336759e-01, 7.198984e+02, 5.771334e+01
min/max/ave velocity = 5.527026e-01, 7.198983e+02, 5.756058e+01
Average time = 45.685032 (ms) per step with 2828 elements 154.66 KB over 100 steps 43.742121 1.572967 0.369730
4000 particles 16 thread
min/max/ave velocity = 1.286284e+01, 2.611542e+03, 5.200402e+02
min/max/ave velocity = 1.277929e+01, 2.611532e+03, 5.128117e+02
min/max/ave velocity = 1.277922e+01, 2.611532e+03, 5.090014e+02
min/max/ave velocity = 1.277920e+01, 2.611532e+03, 5.130895e+02
min/max/ave velocity = 1.277919e+01, 2.611532e+03, 5.240036e+02
min/max/ave velocity = 1.277919e+01, 2.611532e+03, 5.296182e+02
min/max/ave velocity = 1.277919e+01, 2.611532e+03, 5.171832e+02
min/max/ave velocity = 1.277919e+01, 2.611532e+03, 5.213289e+02
min/max/ave velocity = 1.277919e+01, 2.611532e+03, 5.211924e+02
min/max/ave velocity = 1.277919e+01, 2.611532e+03, 5.296203e+02
Average time = 47.973260 (ms) per step with 4000 elements 218.75 KB over 100 steps 43.797997 2.484005 1.690997
5656 particles 32 thread
min/max/ave velocity = 3.482072e+01, 1.072627e+04, 1.323613e+03
min/max/ave velocity = 3.481250e+01, 1.072627e+04, 1.312210e+03
min/max/ave velocity = 3.481243e+01, 1.072627e+04, 1.363889e+03
min/max/ave velocity = 3.481242e+01, 8.489948e+03, 1.205174e+03
min/max/ave velocity = 3.481240e+01, 1.072627e+04, 1.199321e+03
min/max/ave velocity = 3.481237e+01, 1.072627e+04, 1.193135e+03
min/max/ave velocity = 3.481234e+01, 1.072627e+04, 1.454609e+03
min/max/ave velocity = 3.481233e+01, 1.072627e+04, 1.196609e+03
min/max/ave velocity = 3.481232e+01, 1.072627e+04, 1.154049e+03
min/max/ave velocity = 3.481231e+01, 8.489948e+03, 1.165869e+03
Average time = 51.488119 (ms) per step with 5656 elements 309.31 KB over 100 steps 46.503661 1.727429 3.256765
7999 particles 64 thread
min/max/ave velocity = 9.913301e+01, 1.484590e+05, 5.383970e+03
min/max/ave velocity = 9.912052e+01, 1.484590e+05, 5.487514e+03
min/max/ave velocity = 9.912054e+01, 1.484590e+05, 5.320911e+03
min/max/ave velocity = 9.912055e+01, 1.484590e+05, 5.419970e+03
min/max/ave velocity = 9.912055e+01, 1.484590e+05, 5.415482e+03
min/max/ave velocity = 9.912056e+01, 1.484590e+05, 5.814143e+03
min/max/ave velocity = 9.912056e+01, 1.484590e+05, 5.191273e+03
min/max/ave velocity = 9.912056e+01, 1.484590e+05, 5.372255e+03
min/max/ave velocity = 9.912056e+01, 1.484590e+05, 5.355391e+03
min/max/ave velocity = 9.912056e+01, 1.484590e+05, 5.445449e+03
Average time = 87.908758 (ms) per step with 7999 elements 437.45 KB over 100 steps 77.051933 3.106483 7.749760
